\begin{thebibliography}{}

\bibitem{cheneyborden}
Cheney, Margaret and Borden, Brett,  [{\em Fundamentals of Radar
  Imaging}{\nolinebreak\hspace{0.1em}]}, SIAM (2009).

\bibitem{griffiths}
Griffiths, David J.,  [{\em Introduction to
  Electrodynamics}{\nolinebreak\hspace{0.1em}]}, Prentice Hall (1999).

\bibitem{mimo}
Li, Jian and Stoica, Petre,  [{\em MIMO Radar Signal
  Processing}{\nolinebreak\hspace{0.1em}]}, Wiley (2009).

\bibitem{mimodof}
Bliss, {D. W.} and Forsythe, {K. W.}, ``Multiple-{I}nput {M}ultiple-{O}utput
  {(MIMO)} {R}adar and {I}maging: {D}egrees of {F}reedom and {R}esolution,''
  {\em IEEE}  (2003).

\bibitem{fourier}
Morrison, Norman,  [{\em Introduction To Fourier
  Analysis}{\nolinebreak\hspace{0.1em}]}, Wiley (1994).

\end{thebibliography}
