This is BibTeX, Version 0.99cThe top-level auxiliary file: C:\Users\mnight08\Desktop\classes\senior design\fnial presentation\senior design midterm report presentation.aux
I found no \citation commands---while reading file C:\Users\mnight08\Desktop\classes\senior design\fnial presentation\senior design midterm report presentation.aux
I found no \bibdata command---while reading file C:\Users\mnight08\Desktop\classes\senior design\fnial presentation\senior design midterm report presentation.aux
I found no \bibstyle command---while reading file C:\Users\mnight08\Desktop\classes\senior design\fnial presentation\senior design midterm report presentation.aux
(There were 3 error messages)
