\beamer@endinputifotherversion {3.17pt}
\select@language {USenglish}
\beamer@sectionintoc {1}{Background}{2}{0}{1}
\beamer@sectionintoc {2}{Forward Model}{9}{0}{2}
\beamer@sectionintoc {3}{Multiple Input Multiple Output RADAR}{20}{0}{3}
\beamer@sectionintoc {4}{Inverse Problem}{37}{0}{4}
