what,kind,bundleId,bundleVersion,description,time
activated,editor,net.sourceforge.texlipse,1.5.0,"net.sourceforge.texlipse.TexEditor",1336672085621
executed,command,org.eclipse.ui,3.7.0.v20110928-1505,"org.eclipse.ui.edit.selectAll",1336672086833
executed,command,net.sourceforge.texlipse,1.5.0,"net.sourceforge.texlipse.commands.texComment",1336672088496
executed,command,org.eclipse.ui,3.7.0.v20110928-1505,"org.eclipse.ui.file.save",1336672089314
activated,editor,net.sourceforge.texlipse,1.5.0,"net.sourceforge.texlipse.TexEditor",1336672090630
deactivated,workbench,org.eclipse.ui.workbench,3.7.1.v20120104-1859,"",1336672092005
activated,workbench,org.eclipse.ui.workbench,3.7.1.v20120104-1859,"",1336672092543
executed,command,org.eclipse.ui,3.7.0.v20110928-1505,"org.eclipse.ui.file.save",1336672092613
deactivated,workbench,org.eclipse.ui.workbench,3.7.1.v20120104-1859,"",1336672094060
activated,workbench,org.eclipse.ui.workbench,3.7.1.v20120104-1859,"",1336672097273
activated,editor,net.sourceforge.texlipse,1.5.0,"net.sourceforge.texlipse.TexEditor",1336672097311
executed,command,org.eclipse.ui,3.7.0.v20110928-1505,"org.eclipse.ui.file.save",1336672097745
deactivated,workbench,org.eclipse.ui.workbench,3.7.1.v20120104-1859,"",1336672098841
activated,workbench,org.eclipse.ui.workbench,3.7.1.v20120104-1859,"",1336672102512
activated,editor,net.sourceforge.texlipse,1.5.0,"net.sourceforge.texlipse.TexEditor",1336672102550
executed,command,net.sourceforge.texlipse,1.5.0,"net.sourceforge.texlipse.commands.preview",1336672110012
deactivated,workbench,org.eclipse.ui.workbench,3.7.1.v20120104-1859,"",1336672110019
activated,workbench,org.eclipse.ui.workbench,3.7.1.v20120104-1859,"",1336672123433
error,log,,,"Could not start previewer 'itexmac'. Please make sure you have entered the correct path and filename in the viewer preferences.",1336672123474
deactivated,workbench,org.eclipse.ui.workbench,3.7.1.v20120104-1859,"",1336672123477
activated,workbench,org.eclipse.ui.workbench,3.7.1.v20120104-1859,"",1336672124836
activated,view,org.eclipse.ui.ide,3.7.0.v20110928-1505,"org.eclipse.ui.views.ProblemView",1336672140010
activated,editor,net.sourceforge.texlipse,1.5.0,"net.sourceforge.texlipse.TexEditor",1336672148213
executed,command,org.eclipse.ui.workbench.texteditor,3.7.0.v20110928-1504,"org.eclipse.ui.edit.text.goto.lineStart",1336672150654
executed,command,org.eclipse.ui.workbench.texteditor,3.7.0.v20110928-1504,"org.eclipse.ui.edit.text.goto.lineStart",1336672150897
executed,command,org.eclipse.ui.workbench.texteditor,3.7.0.v20110928-1504,"org.eclipse.ui.edit.text.goto.lineStart",1336672151043
executed,command,org.eclipse.ui.workbench.texteditor,3.7.0.v20110928-1504,"org.eclipse.ui.edit.text.goto.lineStart",1336672151261
executed,command,org.eclipse.ui.workbench.texteditor,3.7.0.v20110928-1504,"org.eclipse.ui.edit.text.goto.lineStart",1336672151285
executed,command,org.eclipse.ui.workbench.texteditor,3.7.0.v20110928-1504,"org.eclipse.ui.edit.text.goto.lineStart",1336672151310
executed,command,org.eclipse.ui.workbench.texteditor,3.7.0.v20110928-1504,"org.eclipse.ui.edit.text.goto.lineStart",1336672151333
executed,command,org.eclipse.ui,3.7.0.v20110928-1505,"org.eclipse.ui.file.save",1336672160768
executed,command,net.sourceforge.texlipse,1.5.0,"net.sourceforge.texlipse.commands.preview",1336672169365
error,log,,,"Could not start previewer 'itexmac'. Please make sure you have entered the correct path and filename in the viewer preferences.",1336672169382
deactivated,workbench,org.eclipse.ui.workbench,3.7.1.v20120104-1859,"",1336672169389
activated,workbench,org.eclipse.ui.workbench,3.7.1.v20120104-1859,"",1336672174200
executed,command,net.sourceforge.texlipse,1.5.0,"net.sourceforge.texlipse.commands.preview",1336672177814
error,log,,,"Could not start previewer 'itexmac'. Please make sure you have entered the correct path and filename in the viewer preferences.",1336672177829
deactivated,workbench,org.eclipse.ui.workbench,3.7.1.v20120104-1859,"",1336672177837
activated,workbench,org.eclipse.ui.workbench,3.7.1.v20120104-1859,"",1336672180075
deactivated,workbench,org.eclipse.ui.workbench,3.7.1.v20120104-1859,"",1336672189646
activated,workbench,org.eclipse.ui.workbench,3.7.1.v20120104-1859,"",1336672190501
executed,command,org.eclipse.ui.ide,3.7.0.v20110928-1505,"org.eclipse.ui.project.cleanAction",1336672190508
executed,command,net.sourceforge.texlipse,1.5.0,"net.sourceforge.texlipse.commands.preview",1336672193114
error,log,,,"Could not start previewer 'itexmac'. Please make sure you have entered the correct path and filename in the viewer preferences.",1336672193128
deactivated,workbench,org.eclipse.ui.workbench,3.7.1.v20120104-1859,"",1336672193135
activated,workbench,org.eclipse.ui.workbench,3.7.1.v20120104-1859,"",1336672195217
deactivated,workbench,org.eclipse.ui.workbench,3.7.1.v20120104-1859,"",1336672196700
activated,workbench,org.eclipse.ui.workbench,3.7.1.v20120104-1859,"",1336672197869
closed,workbench,org.eclipse.ui.workbench,3.7.1.v20120104-1859,"",1336672198532
started,bundle,org.eclipse.compare,3.5.202.R37x_v20111109-0800,"org.eclipse.compare",1336672198962
stopped,bundle,edu.umd.cs.findbugs.plugin.eclipse,2.0.0.20111221,"edu.umd.cs.findbugs.plugin.eclipse",1336672199550
stopped,bundle,org.eclipse.ui.cheatsheets,3.4.100.v20110425,"org.eclipse.ui.cheatsheets",1336672199576
stopped,bundle,org.eclipse.help.ui,3.5.101.r37_20110819,"org.eclipse.help.ui",1336672199590
stopped,bundle,org.eclipse.epp.mpc.ui,1.1.1.I20110907-0947,"org.eclipse.epp.mpc.ui",1336672199590
stopped,bundle,org.eclipse.epp.usagedata.ui,1.3.1.R201106061540,"org.eclipse.epp.usagedata.ui",1336672199591
stopped,bundle,org.eclipse.ui.intro.universal,3.2.500.v20110510,"org.eclipse.ui.intro.universal",1336672199591
stopped,bundle,org.eclipse.ui.intro,3.4.100.v20110425,"org.eclipse.ui.intro",1336672199591
stopped,bundle,org.eclipse.help.webapp,3.6.1.r37_20110929,"org.eclipse.help.webapp",1336672199701
stopped,bundle,org.eclipse.help.base,3.6.2.v201202080800,"org.eclipse.help.base",1336672199701
stopped,bundle,org.eclipse.equinox.http.jetty,2.0.100.v20110502,"org.eclipse.equinox.http.jetty",1336672199747
stopped,bundle,org.eclipse.m2e.discovery,1.0.200.20111228-1245,"org.eclipse.m2e.discovery",1336672199747
activated,perspective,net.sourceforge.texlipse,,"net.sourceforge.texlipse.TexlipsePerspective",1336672212848
started,bundle,org.eclipse.osgi,3.7.2.v20120110-1415,"org.eclipse.osgi",1336672212850
started,bundle,org.eclipse.compare.core,3.5.200.I20110208-0800,"org.eclipse.compare.core",1336672212850
started,bundle,org.eclipse.core.contenttype,3.4.100.v20110423-0524,"org.eclipse.core.contenttype",1336672212851
started,bundle,org.eclipse.core.databinding.observable,1.4.0.I20110222-0800,"org.eclipse.core.databinding.observable",1336672212851
started,bundle,org.eclipse.core.expressions,3.4.300.v20110228,"org.eclipse.core.expressions",1336672212852
started,bundle,org.eclipse.core.filesystem,1.3.100.v20110423-0524,"org.eclipse.core.filesystem",1336672212852
started,bundle,org.eclipse.core.net,1.2.100.I20110511-0800,"org.eclipse.core.net",1336672212853
started,bundle,org.eclipse.core.runtime,3.7.0.v20110110,"org.eclipse.core.runtime",1336672212854
started,bundle,org.eclipse.core.runtime.compatibility,3.2.100.v20100505,"org.eclipse.core.runtime.compatibility",1336672212854
started,bundle,org.eclipse.core.runtime.compatibility.auth,3.2.200.v20110110,"org.eclipse.core.runtime.compatibility.auth",1336672212855
started,bundle,org.eclipse.epp.mpc.ui,1.1.1.I20110907-0947,"org.eclipse.epp.mpc.ui",1336672212863
started,bundle,org.eclipse.epp.usagedata.gathering,1.3.1.R201106061540,"org.eclipse.epp.usagedata.gathering",1336672212863
started,bundle,org.eclipse.epp.usagedata.recording,1.3.1.R201106061540,"org.eclipse.epp.usagedata.recording",1336672212864
started,bundle,org.eclipse.equinox.app,1.3.100.v20110321,"org.eclipse.equinox.app",1336672212864
started,bundle,org.eclipse.equinox.common,3.6.0.v20110523,"org.eclipse.equinox.common",1336672212864
started,bundle,org.eclipse.equinox.ds,1.3.1.R37x_v20110701,"org.eclipse.equinox.ds",1336672212865
started,bundle,org.eclipse.equinox.event,1.2.100.v20110502,"org.eclipse.equinox.event",1336672212866
started,bundle,org.eclipse.equinox.registry,3.5.101.R37x_v20110810-1611,"org.eclipse.equinox.registry",1336672212871
started,bundle,org.eclipse.equinox.security,1.1.1.R37x_v20110822-1018,"org.eclipse.equinox.security",1336672212872
started,bundle,org.eclipse.equinox.util,1.0.300.v20110502,"org.eclipse.equinox.util",1336672212873
started,bundle,org.eclipse.help,3.5.100.v20110426,"org.eclipse.help",1336672212873
started,bundle,org.eclipse.jsch.core,1.1.300.I20110514-0800,"org.eclipse.jsch.core",1336672212874
started,bundle,org.eclipse.mylyn.bugzilla.ui,3.6.0.v20110608-1400,"org.eclipse.mylyn.bugzilla.ui",1336672212874
started,bundle,org.eclipse.mylyn.commons.identity,0.8.0.v20110608-1400,"org.eclipse.mylyn.commons.identity",1336672212875
started,bundle,org.eclipse.mylyn.commons.net,3.6.0.v20110608-1400,"org.eclipse.mylyn.commons.net",1336672212875
started,bundle,org.eclipse.mylyn.commons.ui,3.6.1.v20110720-0100,"org.eclipse.mylyn.commons.ui",1336672212875
started,bundle,org.eclipse.mylyn.context.core,3.6.1.v20110720-0100,"org.eclipse.mylyn.context.core",1336672212876
started,bundle,org.eclipse.mylyn.monitor.ui,3.6.0.v20110608-1400,"org.eclipse.mylyn.monitor.ui",1336672212876
started,bundle,org.eclipse.mylyn.team.ui,3.6.1.v20110825-0100,"org.eclipse.mylyn.team.ui",1336672212877
started,bundle,org.eclipse.team.core,3.6.0.I20110525-0800,"org.eclipse.team.core",1336672212879
started,bundle,org.eclipse.team.cvs.core,3.3.400.I20110510-0800,"org.eclipse.team.cvs.core",1336672212879
started,bundle,org.eclipse.ui.intro,3.4.100.v20110425,"org.eclipse.ui.intro",1336672212880
started,bundle,org.eclipse.ui.intro.universal,3.2.500.v20110510,"org.eclipse.ui.intro.universal",1336672212880
started,bundle,org.eclipse.update.configurator,3.3.100.v20100512,"org.eclipse.update.configurator",1336672212881
started,bundle,org.eclipse.update.core,3.2.500.v20110330,"org.eclipse.update.core",1336672212882
started,bundle,org.eclipse.update.scheduler,3.2.300.v20100512,"org.eclipse.update.scheduler",1336672212882
started,bundle,org.eclipse.equinox.simpleconfigurator,1.0.200.v20110815-1438,"org.eclipse.equinox.simpleconfigurator",1336672212883
started,bundle,com.ibm.icu,4.4.2.v20110823,"com.ibm.icu",1336672212883
started,bundle,org.eclipse.core.filebuffers,3.5.200.v20110928-1504,"org.eclipse.core.filebuffers",1336672212884
started,bundle,org.eclipse.core.jobs,3.5.101.v20120113-1953,"org.eclipse.core.jobs",1336672212884
started,bundle,org.eclipse.core.resources,3.7.101.v20120125-1505,"org.eclipse.core.resources",1336672212885
started,bundle,org.eclipse.debug.core,3.7.1.v20111129-2031,"org.eclipse.debug.core",1336672212885
started,bundle,org.eclipse.egit.core,1.3.0.201202151440-r,"org.eclipse.egit.core",1336672212887
started,bundle,org.eclipse.egit.ui,1.3.0.201202151440-r,"org.eclipse.egit.ui",1336672212888
started,bundle,org.eclipse.equinox.p2.core,2.1.1.v20120113-1346,"org.eclipse.equinox.p2.core",1336672212891
started,bundle,org.eclipse.equinox.p2.directorywatcher,1.0.300.v20110815-1419,"org.eclipse.equinox.p2.directorywatcher",1336672212891
started,bundle,org.eclipse.equinox.p2.engine,2.1.1.R37x_v20111003,"org.eclipse.equinox.p2.engine",1336672212894
started,bundle,org.eclipse.equinox.p2.metadata,2.1.0.v20110815-1419,"org.eclipse.equinox.p2.metadata",1336672212895
started,bundle,org.eclipse.equinox.p2.metadata.repository,1.2.0.v20110815-1419,"org.eclipse.equinox.p2.metadata.repository",1336672212895
started,bundle,org.eclipse.equinox.p2.operations,2.1.1.R37x_v20111111,"org.eclipse.equinox.p2.operations",1336672212896
started,bundle,org.eclipse.equinox.p2.reconciler.dropins,1.1.100.v20110815-1419,"org.eclipse.equinox.p2.reconciler.dropins",1336672212897
started,bundle,org.eclipse.equinox.p2.repository,2.1.1.v20120113-1346,"org.eclipse.equinox.p2.repository",1336672212900
started,bundle,org.eclipse.equinox.p2.ui.sdk.scheduler,1.0.100.v20110815-1419,"org.eclipse.equinox.p2.ui.sdk.scheduler",1336672212901
started,bundle,org.eclipse.equinox.p2.updatechecker,1.1.200.v20110815-1419,"org.eclipse.equinox.p2.updatechecker",1336672212902
started,bundle,org.eclipse.equinox.preferences,3.4.2.v20120111-2020,"org.eclipse.equinox.preferences",1336672212912
started,bundle,org.eclipse.jdt.core,3.7.3.v20120119-1537,"org.eclipse.jdt.core",1336672212913
started,bundle,org.eclipse.jdt.core.manipulation,1.4.0.v20110928-1453,"org.eclipse.jdt.core.manipulation",1336672212914
started,bundle,org.eclipse.jdt.launching,3.6.1.v20111006_r372,"org.eclipse.jdt.launching",1336672212914
started,bundle,org.eclipse.jdt.ui,3.7.2.v20120109-1427,"org.eclipse.jdt.ui",1336672212917
started,bundle,org.eclipse.jface,3.7.0.v20110928-1505,"org.eclipse.jface",1336672212917
started,bundle,org.eclipse.jgit,1.3.0.201202151440-r,"org.eclipse.jgit",1336672212918
started,bundle,org.eclipse.m2e.logback.configuration,1.0.200.20111228-1245,"org.eclipse.m2e.logback.configuration",1336672212919
started,bundle,org.eclipse.mylyn.bugzilla.core,3.6.5.v20120123-0100,"org.eclipse.mylyn.bugzilla.core",1336672212920
started,bundle,org.eclipse.mylyn.context.ui,3.6.1.v20120112-0100,"org.eclipse.mylyn.context.ui",1336672212920
started,bundle,org.eclipse.mylyn.tasks.ui,3.6.5.v20120215-0100,"org.eclipse.mylyn.tasks.ui",1336672212924
started,bundle,org.eclipse.search,3.7.0.v20110928-1504,"org.eclipse.search",1336672212925
started,bundle,org.eclipse.team.cvs.ui,3.3.401.v20120126-1227,"org.eclipse.team.cvs.ui",1336672212926
started,bundle,org.eclipse.team.ui,3.6.101.R37x_v20111109-0800,"org.eclipse.team.ui",1336672212927
started,bundle,org.eclipse.ui,3.7.0.v20110928-1505,"org.eclipse.ui",1336672212928
started,bundle,org.eclipse.ui.console,3.5.100.v20111007_r372,"org.eclipse.ui.console",1336672212929
started,bundle,org.eclipse.ui.editors,3.7.0.v20110928-1504,"org.eclipse.ui.editors",1336672212929
started,bundle,org.eclipse.ui.forms,3.5.101.v20111011-1919,"org.eclipse.ui.forms",1336672212929
started,bundle,org.eclipse.ui.ide,3.7.0.v20110928-1505,"org.eclipse.ui.ide",1336672212930
started,bundle,org.eclipse.ui.navigator,3.5.101.v20120106-1355,"org.eclipse.ui.navigator",1336672212931
started,bundle,org.eclipse.ui.navigator.resources,3.4.300.v20110928-1505,"org.eclipse.ui.navigator.resources",1336672212932
started,bundle,org.eclipse.ui.net,1.2.100.v20111208-1155,"org.eclipse.ui.net",1336672212932
started,bundle,org.eclipse.ui.views,3.6.0.v20110928-1505,"org.eclipse.ui.views",1336672212933
started,bundle,org.eclipse.ui.workbench,3.7.1.v20120104-1859,"org.eclipse.ui.workbench",1336672212933
started,bundle,org.eclipse.ui.workbench.texteditor,3.7.0.v20110928-1504,"org.eclipse.ui.workbench.texteditor",1336672212934
started,bundle,org.eclipse.wb.discovery.core,1.3.0.r37x201202052340,"org.eclipse.wb.discovery.core",1336672212936
started,bundle,net.sourceforge.texlipse,1.5.0,"net.sourceforge.texlipse",1336672212936
os,sysinfo,,,"win32",1336672212940
arch,sysinfo,,,"x86_64",1336672212940
ws,sysinfo,,,"win32",1336672212940
locale,sysinfo,,,"en_US",1336672212940
processors,sysinfo,,,"2",1336672212940
java.runtime.name,sysinfo,,,"Java(TM) SE Runtime Environment",1336672212940
java.runtime.version,sysinfo,,,"1.6.0_23-b05",1336672212940
java.specification.name,sysinfo,,,"Java Platform API Specification",1336672212940
java.specification.vendor,sysinfo,,,"Sun Microsystems Inc.",1336672212940
java.specification.version,sysinfo,,,"1.6",1336672212940
java.vendor,sysinfo,,,"Sun Microsystems Inc.",1336672212940
java.version,sysinfo,,,"1.6.0_23",1336672212940
java.vm.info,sysinfo,,,"mixed mode",1336672212940
java.vm.name,sysinfo,,,"Java HotSpot(TM) 64-Bit Server VM",1336672212940
java.vm.specification.name,sysinfo,,,"Java Virtual Machine Specification",1336672212940
java.vm.specification.vendor,sysinfo,,,"Sun Microsystems Inc.",1336672212940
java.vm.specification.version,sysinfo,,,"1.0",1336672212940
java.vm.vendor,sysinfo,,,"Sun Microsystems Inc.",1336672212940
java.vm.version,sysinfo,,,"19.0-b09",1336672212940
started,bundle,org.eclipse.m2e.usagedata,1.0.200.20111228-1245,"org.eclipse.m2e.usagedata",1336672213123
started,bundle,org.eclipse.wb.discovery.ui,1.3.0.r37x201202052340,"org.eclipse.wb.discovery.ui",1336672213189
activated,editor,net.sourceforge.texlipse,1.5.0,"net.sourceforge.texlipse.TexEditor",1336672225804
executed,command,org.eclipse.ui.workbench.texteditor,3.7.0.v20110928-1504,"org.eclipse.ui.edit.text.goto.lineStart",1336672226663
executed,command,org.eclipse.ui.workbench.texteditor,3.7.0.v20110928-1504,"org.eclipse.ui.edit.text.goto.lineStart",1336672226873
executed,command,org.eclipse.ui.workbench.texteditor,3.7.0.v20110928-1504,"org.eclipse.ui.edit.text.goto.lineStart",1336672226897
executed,command,org.eclipse.ui.workbench.texteditor,3.7.0.v20110928-1504,"org.eclipse.ui.edit.text.goto.lineStart",1336672226922
executed,command,org.eclipse.ui.workbench.texteditor,3.7.0.v20110928-1504,"org.eclipse.ui.edit.text.goto.lineStart",1336672226946
executed,command,org.eclipse.ui.workbench.texteditor,3.7.0.v20110928-1504,"org.eclipse.ui.edit.text.goto.lineStart",1336672226970
executed,command,org.eclipse.ui.workbench.texteditor,3.7.0.v20110928-1504,"org.eclipse.ui.edit.text.goto.lineStart",1336672226995
executed,command,org.eclipse.ui.workbench.texteditor,3.7.0.v20110928-1504,"org.eclipse.ui.edit.text.goto.lineStart",1336672227019
executed,command,org.eclipse.ui.workbench.texteditor,3.7.0.v20110928-1504,"org.eclipse.ui.edit.text.goto.lineStart",1336672227043
executed,command,org.eclipse.ui.workbench.texteditor,3.7.0.v20110928-1504,"org.eclipse.ui.edit.text.goto.lineStart",1336672227068
executed,command,org.eclipse.ui.workbench.texteditor,3.7.0.v20110928-1504,"org.eclipse.ui.edit.text.goto.lineStart",1336672227091
executed,command,org.eclipse.ui.workbench.texteditor,3.7.0.v20110928-1504,"org.eclipse.ui.edit.text.goto.lineStart",1336672227116
executed,command,org.eclipse.ui.workbench.texteditor,3.7.0.v20110928-1504,"org.eclipse.ui.edit.text.goto.lineStart",1336672227140
executed,command,org.eclipse.ui.workbench.texteditor,3.7.0.v20110928-1504,"org.eclipse.ui.edit.text.goto.lineStart",1336672227164
executed,command,org.eclipse.ui.workbench.texteditor,3.7.0.v20110928-1504,"org.eclipse.ui.edit.text.goto.lineStart",1336672227188
executed,command,org.eclipse.ui.workbench.texteditor,3.7.0.v20110928-1504,"org.eclipse.ui.edit.text.goto.lineStart",1336672227212
executed,command,org.eclipse.ui.workbench.texteditor,3.7.0.v20110928-1504,"org.eclipse.ui.edit.text.goto.lineStart",1336672227237
executed,command,org.eclipse.ui.workbench.texteditor,3.7.0.v20110928-1504,"org.eclipse.ui.edit.text.goto.lineStart",1336672227260
executed,command,org.eclipse.ui.workbench.texteditor,3.7.0.v20110928-1504,"org.eclipse.ui.edit.text.goto.lineStart",1336672227285
executed,command,org.eclipse.ui.workbench.texteditor,3.7.0.v20110928-1504,"org.eclipse.ui.edit.text.goto.lineStart",1336672227309
executed,command,org.eclipse.ui.workbench.texteditor,3.7.0.v20110928-1504,"org.eclipse.ui.edit.text.goto.lineStart",1336672227334
executed,command,org.eclipse.ui.workbench.texteditor,3.7.0.v20110928-1504,"org.eclipse.ui.edit.text.goto.lineStart",1336672227357
executed,command,org.eclipse.ui.workbench.texteditor,3.7.0.v20110928-1504,"org.eclipse.ui.edit.text.goto.lineStart",1336672227382
executed,command,org.eclipse.ui.workbench.texteditor,3.7.0.v20110928-1504,"org.eclipse.ui.edit.text.goto.lineStart",1336672227406
executed,command,org.eclipse.ui.workbench.texteditor,3.7.0.v20110928-1504,"org.eclipse.ui.edit.text.goto.lineStart",1336672227430
executed,command,org.eclipse.ui.workbench.texteditor,3.7.0.v20110928-1504,"org.eclipse.ui.edit.text.goto.lineStart",1336672227454
started,bundle,org.eclipse.debug.ui,3.7.102.v20111129-1423_r372,"org.eclipse.debug.ui",1336672231877
executed,command,net.sourceforge.texlipse,1.5.0,"net.sourceforge.texlipse.commands.preview",1336672231880
error,log,,,"Could not start previewer 'itexmac'. Please make sure you have entered the correct path and filename in the viewer preferences.",1336672231996
opened,view,org.eclipse.ui.console,3.5.100.v20111007_r372,"org.eclipse.ui.console.ConsoleView",1336672232005
deactivated,workbench,org.eclipse.ui.workbench,3.7.1.v20120104-1859,"",1336672232034
activated,workbench,org.eclipse.ui.workbench,3.7.1.v20120104-1859,"",1336672264819
executed,command,org.eclipse.ui,3.7.0.v20110928-1505,"org.eclipse.ui.file.save",1336672278033
executed,command,net.sourceforge.texlipse,1.5.0,"net.sourceforge.texlipse.commands.preview",1336672280700
error,log,,,"Could not start previewer 'itexmac'. Please make sure you have entered the correct path and filename in the viewer preferences.",1336672280716
deactivated,workbench,org.eclipse.ui.workbench,3.7.1.v20120104-1859,"",1336672280731
activated,workbench,org.eclipse.ui.workbench,3.7.1.v20120104-1859,"",1336672282463
deactivated,workbench,org.eclipse.ui.workbench,3.7.1.v20120104-1859,"",1336672295021
started,bundle,org.eclipse.wst.common.frameworks.ui,1.2.100.v201105122000,"org.eclipse.wst.common.frameworks.ui",1336672300590
started,bundle,org.eclipse.wst.validation.ui,1.2.300.v201201050300,"org.eclipse.wst.validation.ui",1336672300590
started,bundle,org.eclipse.wst.validation,1.2.303.v201202090300,"org.eclipse.wst.validation",1336672300684
started,bundle,org.eclipse.wst.common.project.facet.core,1.4.201.v201201101553,"org.eclipse.wst.common.project.facet.core",1336672300762
activated,workbench,org.eclipse.ui.workbench,3.7.1.v20120104-1859,"",1336672311651
executed,command,org.eclipse.ui.ide,3.7.0.v20110928-1505,"org.eclipse.ui.project.properties",1336672311651
started,bundle,org.eclipse.ui.externaltools,3.2.0.v20111007_r372,"org.eclipse.ui.externaltools",1336672314630
deactivated,workbench,org.eclipse.ui.workbench,3.7.1.v20120104-1859,"",1336672345128
activated,workbench,org.eclipse.ui.workbench,3.7.1.v20120104-1859,"",1336672347593
executed,command,org.eclipse.ui.ide,3.7.0.v20110928-1505,"org.eclipse.ui.project.properties",1336672347609
executed,command,net.sourceforge.texlipse,1.5.0,"net.sourceforge.texlipse.commands.preview",1336672351290
error,log,,,"Could not start previewer 'itexmac'. Please make sure you have entered the correct path and filename in the viewer preferences.",1336672351321
deactivated,workbench,org.eclipse.ui.workbench,3.7.1.v20120104-1859,"",1336672351321
activated,workbench,org.eclipse.ui.workbench,3.7.1.v20120104-1859,"",1336672355034
deactivated,workbench,org.eclipse.ui.workbench,3.7.1.v20120104-1859,"",1336672356126
activated,workbench,org.eclipse.ui.workbench,3.7.1.v20120104-1859,"",1336672357655
closed,workbench,org.eclipse.ui.workbench,3.7.1.v20120104-1859,"",1336672357842
started,bundle,org.eclipse.compare,3.5.202.R37x_v20111109-0800,"org.eclipse.compare",1336672358045
stopped,bundle,edu.umd.cs.findbugs.plugin.eclipse,2.0.0.20111221,"edu.umd.cs.findbugs.plugin.eclipse",1336672358217
stopped,bundle,org.eclipse.ui.cheatsheets,3.4.100.v20110425,"org.eclipse.ui.cheatsheets",1336672358217
stopped,bundle,org.eclipse.help.ui,3.5.101.r37_20110819,"org.eclipse.help.ui",1336672358217
stopped,bundle,org.eclipse.epp.mpc.ui,1.1.1.I20110907-0947,"org.eclipse.epp.mpc.ui",1336672358232
stopped,bundle,org.eclipse.epp.usagedata.ui,1.3.1.R201106061540,"org.eclipse.epp.usagedata.ui",1336672358232
stopped,bundle,org.eclipse.ui.intro.universal,3.2.500.v20110510,"org.eclipse.ui.intro.universal",1336672358232
stopped,bundle,org.eclipse.ui.intro,3.4.100.v20110425,"org.eclipse.ui.intro",1336672358232
stopped,bundle,org.eclipse.help.webapp,3.6.1.r37_20110929,"org.eclipse.help.webapp",1336672358232
stopped,bundle,org.eclipse.help.base,3.6.2.v201202080800,"org.eclipse.help.base",1336672358232
stopped,bundle,org.eclipse.equinox.http.jetty,2.0.100.v20110502,"org.eclipse.equinox.http.jetty",1336672358232
stopped,bundle,org.eclipse.m2e.discovery,1.0.200.20111228-1245,"org.eclipse.m2e.discovery",1336672358263
stopped,bundle,org.eclipse.m2e.refactoring,1.0.200.20111228-1245,"org.eclipse.m2e.refactoring",1336672358263
activated,perspective,net.sourceforge.texlipse,,"net.sourceforge.texlipse.TexlipsePerspective",1336684135518
started,bundle,org.eclipse.osgi,3.7.2.v20120110-1415,"org.eclipse.osgi",1336684135519
started,bundle,org.eclipse.compare.core,3.5.200.I20110208-0800,"org.eclipse.compare.core",1336684135519
started,bundle,org.eclipse.core.contenttype,3.4.100.v20110423-0524,"org.eclipse.core.contenttype",1336684135520
started,bundle,org.eclipse.core.databinding.observable,1.4.0.I20110222-0800,"org.eclipse.core.databinding.observable",1336684135521
started,bundle,org.eclipse.core.expressions,3.4.300.v20110228,"org.eclipse.core.expressions",1336684135521
started,bundle,org.eclipse.core.filesystem,1.3.100.v20110423-0524,"org.eclipse.core.filesystem",1336684135522
started,bundle,org.eclipse.core.net,1.2.100.I20110511-0800,"org.eclipse.core.net",1336684135523
started,bundle,org.eclipse.core.runtime,3.7.0.v20110110,"org.eclipse.core.runtime",1336684135523
started,bundle,org.eclipse.core.runtime.compatibility,3.2.100.v20100505,"org.eclipse.core.runtime.compatibility",1336684135524
started,bundle,org.eclipse.core.runtime.compatibility.auth,3.2.200.v20110110,"org.eclipse.core.runtime.compatibility.auth",1336684135524
started,bundle,org.eclipse.epp.mpc.ui,1.1.1.I20110907-0947,"org.eclipse.epp.mpc.ui",1336684135525
started,bundle,org.eclipse.epp.usagedata.gathering,1.3.1.R201106061540,"org.eclipse.epp.usagedata.gathering",1336684135525
started,bundle,org.eclipse.epp.usagedata.recording,1.3.1.R201106061540,"org.eclipse.epp.usagedata.recording",1336684135526
started,bundle,org.eclipse.equinox.app,1.3.100.v20110321,"org.eclipse.equinox.app",1336684135527
started,bundle,org.eclipse.equinox.common,3.6.0.v20110523,"org.eclipse.equinox.common",1336684135527
started,bundle,org.eclipse.equinox.ds,1.3.1.R37x_v20110701,"org.eclipse.equinox.ds",1336684135528
started,bundle,org.eclipse.equinox.event,1.2.100.v20110502,"org.eclipse.equinox.event",1336684135528
started,bundle,org.eclipse.equinox.registry,3.5.101.R37x_v20110810-1611,"org.eclipse.equinox.registry",1336684135529
started,bundle,org.eclipse.equinox.security,1.1.1.R37x_v20110822-1018,"org.eclipse.equinox.security",1336684135600
started,bundle,org.eclipse.equinox.util,1.0.300.v20110502,"org.eclipse.equinox.util",1336684135600
started,bundle,org.eclipse.help,3.5.100.v20110426,"org.eclipse.help",1336684135601
started,bundle,org.eclipse.jsch.core,1.1.300.I20110514-0800,"org.eclipse.jsch.core",1336684135602
started,bundle,org.eclipse.mylyn.bugzilla.ui,3.6.0.v20110608-1400,"org.eclipse.mylyn.bugzilla.ui",1336684135602
started,bundle,org.eclipse.mylyn.commons.identity,0.8.0.v20110608-1400,"org.eclipse.mylyn.commons.identity",1336684135603
