what,kind,bundleId,bundleVersion,description,time
activated,workbench,org.eclipse.ui.workbench,3.7.1.v20120104-1859,"",1336693940325
executed,command,org.eclipse.ui,3.7.0.v20110928-1505,"org.eclipse.ui.edit.delete",1336693974711
executed,command,org.eclipse.ui,3.7.0.v20110928-1505,"org.eclipse.ui.edit.delete",1336693974928
executed,command,org.eclipse.ui,3.7.0.v20110928-1505,"org.eclipse.ui.edit.delete",1336693974951
executed,command,org.eclipse.ui,3.7.0.v20110928-1505,"org.eclipse.ui.edit.delete",1336693974976
executed,command,org.eclipse.ui,3.7.0.v20110928-1505,"org.eclipse.ui.edit.delete",1336693975000
executed,command,org.eclipse.ui,3.7.0.v20110928-1505,"org.eclipse.ui.edit.delete",1336693975024
executed,command,org.eclipse.ui,3.7.0.v20110928-1505,"org.eclipse.ui.edit.delete",1336693975048
executed,command,org.eclipse.ui,3.7.0.v20110928-1505,"org.eclipse.ui.edit.delete",1336693975072
executed,command,org.eclipse.ui,3.7.0.v20110928-1505,"org.eclipse.ui.edit.delete",1336693975096
executed,command,org.eclipse.ui,3.7.0.v20110928-1505,"org.eclipse.ui.edit.delete",1336693975120
executed,command,org.eclipse.ui,3.7.0.v20110928-1505,"org.eclipse.ui.edit.delete",1336693975144
executed,command,org.eclipse.ui,3.7.0.v20110928-1505,"org.eclipse.ui.edit.delete",1336693975278
executed,command,org.eclipse.ui,3.7.0.v20110928-1505,"org.eclipse.ui.edit.delete",1336693975447
executed,command,org.eclipse.ui,3.7.0.v20110928-1505,"org.eclipse.ui.edit.delete",1336693975607
executed,command,org.eclipse.ui,3.7.0.v20110928-1505,"org.eclipse.ui.edit.delete",1336693975748
executed,command,org.eclipse.ui,3.7.0.v20110928-1505,"org.eclipse.ui.edit.delete",1336693975883
executed,command,org.eclipse.ui,3.7.0.v20110928-1505,"org.eclipse.ui.edit.delete",1336693976026
executed,command,org.eclipse.ui,3.7.0.v20110928-1505,"org.eclipse.ui.edit.delete",1336693976179
executed,command,org.eclipse.ui,3.7.0.v20110928-1505,"org.eclipse.ui.edit.delete",1336693976340
executed,command,org.eclipse.ui,3.7.0.v20110928-1505,"org.eclipse.ui.edit.delete",1336693976481
executed,command,org.eclipse.ui,3.7.0.v20110928-1505,"org.eclipse.ui.edit.delete",1336693976628
executed,command,org.eclipse.ui,3.7.0.v20110928-1505,"org.eclipse.ui.edit.delete",1336693976794
executed,command,org.eclipse.ui,3.7.0.v20110928-1505,"org.eclipse.ui.edit.delete",1336693976942
executed,command,org.eclipse.ui,3.7.0.v20110928-1505,"org.eclipse.ui.edit.delete",1336693977099
executed,command,org.eclipse.ui,3.7.0.v20110928-1505,"org.eclipse.ui.edit.delete",1336693977253
executed,command,org.eclipse.ui,3.7.0.v20110928-1505,"org.eclipse.ui.edit.delete",1336693977406
executed,command,org.eclipse.ui,3.7.0.v20110928-1505,"org.eclipse.ui.edit.delete",1336693977552
executed,command,org.eclipse.ui,3.7.0.v20110928-1505,"org.eclipse.ui.edit.delete",1336693977798
executed,command,org.eclipse.ui,3.7.0.v20110928-1505,"org.eclipse.ui.file.save",1336693978140
deactivated,workbench,org.eclipse.ui.workbench,3.7.1.v20120104-1859,"",1336693979892
activated,workbench,org.eclipse.ui.workbench,3.7.1.v20120104-1859,"",1336693991712
deactivated,workbench,org.eclipse.ui.workbench,3.7.1.v20120104-1859,"",1336693998640
activated,workbench,org.eclipse.ui.workbench,3.7.1.v20120104-1859,"",1336694006362
executed,command,org.eclipse.ui,3.7.0.v20110928-1505,"org.eclipse.ui.file.save",1336694021291
deactivated,workbench,org.eclipse.ui.workbench,3.7.1.v20120104-1859,"",1336694023029
activated,workbench,org.eclipse.ui.workbench,3.7.1.v20120104-1859,"",1336694026181
deactivated,workbench,org.eclipse.ui.workbench,3.7.1.v20120104-1859,"",1336694026789
activated,workbench,org.eclipse.ui.workbench,3.7.1.v20120104-1859,"",1336694047127
executed,command,org.eclipse.ui,3.7.0.v20110928-1505,"org.eclipse.ui.file.save",1336694091018
deactivated,workbench,org.eclipse.ui.workbench,3.7.1.v20120104-1859,"",1336694092625
activated,workbench,org.eclipse.ui.workbench,3.7.1.v20120104-1859,"",1336694095404
executed,command,org.eclipse.ui,3.7.0.v20110928-1505,"org.eclipse.ui.file.save",1336694102722
deactivated,workbench,org.eclipse.ui.workbench,3.7.1.v20120104-1859,"",1336694104145
activated,workbench,org.eclipse.ui.workbench,3.7.1.v20120104-1859,"",1336694105414
executed,command,org.eclipse.ui,3.7.0.v20110928-1505,"org.eclipse.ui.file.save",1336694113212
deactivated,workbench,org.eclipse.ui.workbench,3.7.1.v20120104-1859,"",1336694114982
activated,workbench,org.eclipse.ui.workbench,3.7.1.v20120104-1859,"",1336694140667
executed,command,org.eclipse.ui,3.7.0.v20110928-1505,"org.eclipse.ui.file.save",1336694158539
deactivated,workbench,org.eclipse.ui.workbench,3.7.1.v20120104-1859,"",1336694159890
activated,workbench,org.eclipse.ui.workbench,3.7.1.v20120104-1859,"",1336694182961
activated,view,org.eclipse.ui.navigator.resources,3.4.300.v20110928-1505,"org.eclipse.ui.navigator.ProjectExplorer",1336694187974
deactivated,workbench,org.eclipse.ui.workbench,3.7.1.v20120104-1859,"",1336694236065
activated,workbench,org.eclipse.ui.workbench,3.7.1.v20120104-1859,"",1336694279082
activated,editor,net.sourceforge.texlipse,1.5.0,"net.sourceforge.texlipse.TexEditor",1336694283358
executed,command,org.eclipse.ui,3.7.0.v20110928-1505,"org.eclipse.ui.file.save",1336694328590
deactivated,workbench,org.eclipse.ui.workbench,3.7.1.v20120104-1859,"",1336694330426
activated,workbench,org.eclipse.ui.workbench,3.7.1.v20120104-1859,"",1336694332852
deactivated,workbench,org.eclipse.ui.workbench,3.7.1.v20120104-1859,"",1336694334609
activated,workbench,org.eclipse.ui.workbench,3.7.1.v20120104-1859,"",1336694336538
closed,workbench,org.eclipse.ui.workbench,3.7.1.v20120104-1859,"",1336694336667
started,bundle,org.eclipse.compare,3.5.202.R37x_v20111109-0800,"org.eclipse.compare",1336694336903
stopped,bundle,edu.umd.cs.findbugs.plugin.eclipse,2.0.0.20111221,"edu.umd.cs.findbugs.plugin.eclipse",1336694337275
stopped,bundle,org.eclipse.ui.cheatsheets,3.4.100.v20110425,"org.eclipse.ui.cheatsheets",1336694337277
stopped,bundle,org.eclipse.help.ui,3.5.101.r37_20110819,"org.eclipse.help.ui",1336694337279
stopped,bundle,org.eclipse.epp.mpc.ui,1.1.1.I20110907-0947,"org.eclipse.epp.mpc.ui",1336694337280
stopped,bundle,org.eclipse.epp.usagedata.ui,1.3.1.R201106061540,"org.eclipse.epp.usagedata.ui",1336694337281
stopped,bundle,org.eclipse.ui.intro.universal,3.2.500.v20110510,"org.eclipse.ui.intro.universal",1336694337294
stopped,bundle,org.eclipse.ui.intro,3.4.100.v20110425,"org.eclipse.ui.intro",1336694337304
stopped,bundle,org.eclipse.help.webapp,3.6.1.r37_20110929,"org.eclipse.help.webapp",1336694337305
