\beamer@endinputifotherversion {3.17pt}
\headcommand {\slideentry {0}{0}{1}{1/1}{}{0}}
\headcommand {\beamer@framepages {1}{1}}
\headcommand {\sectionentry {1}{Background}{2}{Background}{0}}
\headcommand {\beamer@sectionpages {1}{1}}
\headcommand {\beamer@subsectionpages {1}{1}}
\headcommand {\slideentry {1}{0}{2}{2/2}{}{0}}
\headcommand {\beamer@framepages {2}{2}}
\headcommand {\slideentry {1}{0}{3}{3/3}{}{0}}
\headcommand {\beamer@framepages {3}{3}}
\headcommand {\slideentry {1}{0}{4}{4/4}{}{0}}
\headcommand {\beamer@framepages {4}{4}}
\headcommand {\slideentry {1}{0}{5}{5/5}{}{0}}
\headcommand {\beamer@framepages {5}{5}}
\headcommand {\slideentry {1}{0}{6}{6/6}{}{0}}
\headcommand {\beamer@framepages {6}{6}}
\headcommand {\slideentry {1}{0}{7}{7/7}{}{0}}
\headcommand {\beamer@framepages {7}{7}}
\headcommand {\slideentry {1}{0}{8}{8/8}{}{0}}
\headcommand {\beamer@framepages {8}{8}}
\headcommand {\sectionentry {2}{Forward Model}{9}{Forward Model}{0}}
\headcommand {\beamer@sectionpages {2}{8}}
\headcommand {\beamer@subsectionpages {2}{8}}
\headcommand {\slideentry {2}{0}{9}{9/9}{}{0}}
\headcommand {\beamer@framepages {9}{9}}
\headcommand {\slideentry {2}{0}{10}{10/10}{}{0}}
\headcommand {\beamer@framepages {10}{10}}
\headcommand {\slideentry {2}{0}{11}{11/11}{}{0}}
\headcommand {\beamer@framepages {11}{11}}
\headcommand {\slideentry {2}{0}{12}{12/12}{}{0}}
\headcommand {\beamer@framepages {12}{12}}
\headcommand {\slideentry {2}{0}{13}{13/15}{}{0}}
\headcommand {\beamer@framepages {13}{15}}
\headcommand {\slideentry {2}{0}{14}{16/16}{}{0}}
\headcommand {\beamer@framepages {16}{16}}
\headcommand {\slideentry {2}{0}{15}{17/17}{}{0}}
\headcommand {\beamer@framepages {17}{17}}
\headcommand {\slideentry {2}{0}{16}{18/18}{}{0}}
\headcommand {\beamer@framepages {18}{18}}
\headcommand {\slideentry {2}{0}{17}{19/19}{}{0}}
\headcommand {\beamer@framepages {19}{19}}
\headcommand {\sectionentry {3}{Multiple Input Multiple Output RADAR}{20}{Multiple Input Multiple Output RADAR}{0}}
\headcommand {\beamer@sectionpages {9}{19}}
\headcommand {\beamer@subsectionpages {9}{19}}
\headcommand {\slideentry {3}{0}{18}{20/25}{}{0}}
\headcommand {\beamer@framepages {20}{25}}
\headcommand {\slideentry {3}{0}{19}{26/26}{}{0}}
\headcommand {\beamer@framepages {26}{26}}
\headcommand {\slideentry {3}{0}{20}{27/30}{}{0}}
\headcommand {\beamer@framepages {27}{30}}
\headcommand {\slideentry {3}{0}{21}{31/31}{}{0}}
\headcommand {\beamer@framepages {31}{31}}
\headcommand {\slideentry {3}{0}{22}{32/32}{}{0}}
\headcommand {\beamer@framepages {32}{32}}
\headcommand {\slideentry {3}{0}{23}{33/33}{}{0}}
\headcommand {\beamer@framepages {33}{33}}
\headcommand {\slideentry {3}{0}{24}{34/34}{}{0}}
\headcommand {\beamer@framepages {34}{34}}
\headcommand {\slideentry {3}{0}{25}{35/35}{}{0}}
\headcommand {\beamer@framepages {35}{35}}
\headcommand {\slideentry {3}{0}{26}{36/36}{}{0}}
\headcommand {\beamer@framepages {36}{36}}
\headcommand {\sectionentry {4}{Inverse Problem}{37}{Inverse Problem}{0}}
\headcommand {\beamer@sectionpages {20}{36}}
\headcommand {\beamer@subsectionpages {20}{36}}
\headcommand {\slideentry {4}{0}{27}{37/37}{}{0}}
\headcommand {\beamer@framepages {37}{37}}
\headcommand {\slideentry {4}{0}{28}{38/38}{}{0}}
\headcommand {\beamer@framepages {38}{38}}
\headcommand {\slideentry {4}{0}{29}{39/39}{}{0}}
\headcommand {\beamer@framepages {39}{39}}
\headcommand {\slideentry {4}{0}{30}{40/40}{}{0}}
\headcommand {\beamer@framepages {40}{40}}
\headcommand {\slideentry {4}{0}{31}{41/41}{}{0}}
\headcommand {\beamer@framepages {41}{41}}
\headcommand {\slideentry {4}{0}{32}{42/42}{}{0}}
\headcommand {\beamer@framepages {42}{42}}
\headcommand {\slideentry {4}{0}{33}{43/45}{}{0}}
\headcommand {\beamer@framepages {43}{45}}
\headcommand {\slideentry {4}{0}{34}{46/46}{}{0}}
\headcommand {\beamer@framepages {46}{46}}
\headcommand {\slideentry {4}{0}{35}{47/47}{}{0}}
\headcommand {\beamer@framepages {47}{47}}
\headcommand {\slideentry {4}{0}{36}{48/48}{}{0}}
\headcommand {\beamer@framepages {48}{48}}
\headcommand {\slideentry {4}{0}{37}{49/49}{}{0}}
\headcommand {\beamer@framepages {49}{49}}
\headcommand {\slideentry {4}{0}{38}{50/50}{}{0}}
\headcommand {\beamer@framepages {50}{50}}
\headcommand {\slideentry {4}{0}{39}{51/54}{}{0}}
\headcommand {\beamer@framepages {51}{54}}
\headcommand {\slideentry {4}{0}{40}{55/55}{}{0}}
\headcommand {\beamer@framepages {55}{55}}
\headcommand {\slideentry {4}{0}{41}{56/60}{}{0}}
\headcommand {\beamer@framepages {56}{60}}
\headcommand {\slideentry {4}{0}{42}{61/61}{}{0}}
\headcommand {\beamer@framepages {61}{61}}
\headcommand {\slideentry {4}{0}{43}{62/62}{}{0}}
\headcommand {\beamer@framepages {62}{62}}
\headcommand {\slideentry {4}{0}{44}{63/63}{}{0}}
\headcommand {\beamer@framepages {63}{63}}
\headcommand {\slideentry {4}{0}{45}{64/64}{}{0}}
\headcommand {\beamer@framepages {64}{64}}
\headcommand {\slideentry {4}{0}{46}{65/65}{}{0}}
\headcommand {\beamer@framepages {65}{65}}
\headcommand {\slideentry {4}{0}{47}{66/66}{}{0}}
\headcommand {\beamer@framepages {66}{66}}
\headcommand {\slideentry {4}{0}{48}{67/71}{}{0}}
\headcommand {\beamer@framepages {67}{71}}
\headcommand {\slideentry {4}{0}{49}{72/72}{}{0}}
\headcommand {\beamer@framepages {72}{72}}
\headcommand {\slideentry {4}{0}{50}{73/73}{}{0}}
\headcommand {\beamer@framepages {73}{73}}
\headcommand {\slideentry {4}{0}{51}{74/74}{}{0}}
\headcommand {\beamer@framepages {74}{74}}
\headcommand {\slideentry {4}{0}{52}{75/75}{}{0}}
\headcommand {\beamer@framepages {75}{75}}
\headcommand {\slideentry {4}{0}{53}{76/76}{}{0}}
\headcommand {\beamer@framepages {76}{76}}
\headcommand {\slideentry {4}{0}{54}{77/77}{}{0}}
\headcommand {\beamer@framepages {77}{77}}
\headcommand {\slideentry {4}{0}{55}{78/78}{}{0}}
\headcommand {\beamer@framepages {78}{78}}
\headcommand {\slideentry {4}{0}{56}{79/79}{}{0}}
\headcommand {\beamer@framepages {79}{79}}
\headcommand {\slideentry {4}{0}{57}{80/80}{}{0}}
\headcommand {\beamer@framepages {80}{80}}
\headcommand {\slideentry {4}{0}{58}{81/81}{}{0}}
\headcommand {\beamer@framepages {81}{81}}
\headcommand {\slideentry {4}{0}{59}{82/82}{}{0}}
\headcommand {\beamer@framepages {82}{82}}
\headcommand {\slideentry {4}{0}{60}{83/83}{}{0}}
\headcommand {\beamer@framepages {83}{83}}
\headcommand {\slideentry {4}{0}{61}{84/84}{}{0}}
\headcommand {\beamer@framepages {84}{84}}
\headcommand {\slideentry {4}{0}{62}{85/85}{}{0}}
\headcommand {\beamer@framepages {85}{85}}
\headcommand {\beamer@partpages {86}{85}}
\headcommand {\beamer@subsectionpages {86}{85}}
\headcommand {\beamer@sectionpages {86}{85}}
\headcommand {\beamer@documentpages {85}}
\headcommand {\def \inserttotalframenumber {62}}
